[gd_scene load_steps=7 format=2]

[ext_resource path="res://Scripts/Player.gd" type="Script" id=1]
[ext_resource path="res://Asset/tempPlayer.png" type="Texture" id=2]

[sub_resource type="SpriteFrames" id=1]
animations = [ {
"frames": [ ExtResource( 2 ) ],
"loop": true,
"name": "Idle",
"speed": 5.0
} ]

[sub_resource type="RectangleShape2D" id=2]
extents = Vector2( 10.0633, 13.5583 )

[sub_resource type="CircleShape2D" id=3]
radius = 30.3219

[sub_resource type="OccluderPolygon2D" id=4]
polygon = PoolVector2Array( -24.9538, -15.6463, -15.6786, -24.9215, -0.457654, -30.1537, 15.0011, -26.3485, 26.179, -16.1219, 29.0329, -9.46279, 50.913, -9.93845, 51.1508, 10.9903, 28.795, 10.7525, 20.4711, 23.1195, 7.62846, 30.0165, -8.06812, 29.7786, -22.8134, 19.3143, -28.7591, 7.66074, -28.5212, -4.2306 )

[node name="Player" type="KinematicBody2D"]
position = Vector2( -1.75806, 0 )
script = ExtResource( 1 )

[node name="AnimatedSprite" type="AnimatedSprite" parent="."]
position = Vector2( 0.672982, -0.581125 )
rotation = 1.5708
scale = Vector2( 0.218436, 0.25 )
frames = SubResource( 1 )
animation = "Idle"

[node name="head" type="CollisionShape2D" parent="."]
position = Vector2( 37.8799, 0.152027 )
rotation = 1.57079
shape = SubResource( 2 )

[node name="body" type="CollisionShape2D" parent="."]
position = Vector2( 0.538467, 0.387421 )
shape = SubResource( 3 )

[node name="LightOccluder2D" type="LightOccluder2D" parent="."]
occluder = SubResource( 4 )

[node name="Camera2D" type="Camera2D" parent="."]
current = true
zoom = Vector2( 0.5, 0.5 )
